infected,timestamp
0.01,0
0.02,1
0.03,7
0.04,8
0.05,9
0.06,12
0.07,13
0.09,15
0.11,16
0.13,17
0.15,18
0.16,19
0.22,20
0.25,21
0.3,22
0.32,23
0.35,24
0.4,25
0.44,26
0.49,27
0.53,28
0.58,29
0.62,30
0.66,31
0.76,32
0.81,33
0.86,34
0.91,35
0.93,36
0.97,37
0.98,38
1.0,39
