infected,recovered,timestamp
0.2,0.0,0
0.18,0.04,1
0.16,0.08,2
0.16,0.1,3
0.16,0.12,4
0.15,0.14,5
0.14,0.17,6
0.13,0.2,7
0.1,0.23,8
0.06,0.27,9
0.05,0.28,10
0.05,0.29,11
0.04,0.3,13
0.02,0.32,14
0.02,0.33,15
0.03,0.33,17
0.04,0.33,19
0.05,0.33,20
0.04,0.34,22
0.0,0.38,24
0.0,0.38,39999
