node,infection_time,recovery_time
4,-1,13
9,5,36
6,7,26
5,7,23
3,9,36
8,11,52
7,15,47
1,18,20
0,20,43
4,22,42
1,24,38
2,27,28
6,27,32
5,29,40
2,31,82
6,33,39
9,39,55
6,41,47
5,46,55
1,49,62
7,50,70
3,51,77
0,52,56
4,54,63
8,54,55
6,55,70
9,57,101
8,58,68
5,59,71
1,64,69
0,64,105
4,66,114
1,70,107
6,72,80
7,73,82
8,75,79
5,77,86
3,78,93
6,82,139
2,84,85
8,86,100
7,86,98
5,87,102
2,88,128
3,97,102
8,101,104
9,102,105
7,103,110
8,106,139
0,108,151
5,109,153
7,111,125
1,113,122
3,114,119
4,119,123
3,121,150
9,122,124
1,124,133
7,128,138
9,128,137
4,130,131
2,130,145
4,134,162
7,142,161
8,142,190
9,143,144
1,144,155
6,146,195
9,147,210
2,152,154
0,154,155
0,156,183
1,157,228
3,158,161
5,160,161
2,160,180
5,162,176
3,163,175
4,165,166
7,166,202
4,168,179
5,178,179
3,180,199
4,180,189
5,181,212
2,183,186
2,187,194
4,190,204
0,191,195
8,193,198
2,196,219
6,199,208
8,201,232
7,203,241
4,205,225
0,205,214
3,209,221
6,212,214
5,214,270
9,216,251
6,217,239
2,220,227
3,223,238
0,227,239
1,229,262
2,235,262
4,238,256
0,241,243
8,242,250
6,243,262
0,244,247
7,244,256
3,245,263
0,248,269
9,252,266
8,257,258
8,259,260
4,260,267
8,261,275
1,263,286
2,263,325
3,265,278
7,265,279
6,266,270
9,268,308
4,268,299
6,271,275
5,273,277
0,273,361
6,276,288
3,282,326
8,282,284
7,285,343
8,286,298
5,286,322
1,287,288
1,293,327
6,298,309
4,305,314
8,307,338
9,309,315
4,316,338
6,317,324
9,320,322
9,325,367
2,327,338
6,329,331
3,329,345
1,334,340
6,336,348
2,340,343
4,340,347
1,341,349
8,344,352
7,346,366
2,351,361
4,352,372
1,353,413
3,353,366
6,354,363
5,356,368
8,357,400
0,363,373
2,363,365
7,367,402
3,368,372
9,368,380
5,370,395
6,370,378
2,371,395
3,374,396
4,374,380
0,378,387
9,382,418
4,384,403
6,384,393
0,389,405
6,398,430
5,399,448
4,404,429
2,405,420
7,408,420
0,409,430
3,413,415
3,416,436
1,417,442
8,423,433
9,423,438
7,424,431
2,425,428
0,431,449
7,432,443
6,433,447
2,434,464
4,435,446
3,437,451
8,437,451
9,441,455
1,443,449
4,447,468
6,449,459
5,450,456
7,451,464
1,452,485
0,452,458
3,454,455
8,456,464
0,460,504
3,461,482
5,463,480
7,465,478
8,466,467
8,468,474
4,469,486
2,469,495
6,473,489
9,482,485
7,484,486
3,484,509
9,486,490
8,486,509
5,487,504
1,489,493
7,489,505
6,492,504
9,495,502
4,497,516
2,497,505
1,502,512
5,505,513
6,506,518
7,508,522
9,509,571
3,511,528
2,512,522
8,517,524
0,520,536
1,523,585
2,524,530
7,525,532
8,529,548
4,529,559
6,530,538
3,531,565
2,534,547
7,537,557
5,538,571
0,540,549
6,541,561
8,551,564
2,551,576
0,555,564
4,560,574
6,563,579
7,563,564
8,565,566
0,566,591
7,567,570
8,567,641
3,568,576
5,572,606
7,575,585
3,577,611
2,577,579
9,579,685
4,579,593
6,581,591
2,582,644
1,587,621
6,593,694
0,594,599
4,596,604
7,596,603
0,604,607
4,606,632
5,607,625
7,608,625
0,614,649
3,616,623
1,623,631
7,626,643
5,626,633
3,628,664
1,632,643
5,635,637
4,636,647
5,640,654
8,642,660
2,646,647
1,647,661
7,648,680
2,649,651
0,652,703
2,652,693
5,656,697
1,662,671
4,671,770
1,673,682
8,673,674
3,675,677
3,678,682
8,680,747
3,683,711
7,684,700
1,685,687
9,690,696
2,694,708
1,698,717
9,700,704
5,700,715
7,702,729
6,704,712
9,706,710
0,709,741
9,712,731
3,715,726
2,717,756
6,717,741
5,721,738
1,727,793
3,729,751
9,733,751
7,738,743
5,739,742
6,742,755
0,742,762
7,744,761
8,749,767
3,753,776
9,754,764
2,758,770
6,761,764
5,762,771
0,765,778
6,766,772
7,768,783
9,768,783
8,769,785
4,772,785
5,773,776
6,774,780
5,779,810
3,780,794
6,781,837
2,781,783
9,785,794
0,787,853
4,787,835
7,788,790
2,789,800
8,790,825
9,795,856
7,796,798
3,796,810
1,797,801
7,800,836
1,802,806
2,802,804
2,805,836
1,811,814
5,818,843
3,820,850
8,827,838
1,832,837
4,837,865
2,838,839
1,839,882
6,841,888
8,841,859
7,842,859
2,844,861
5,845,921
3,854,864
0,855,874
9,857,899
8,860,863
7,861,870
2,863,872
8,868,871
3,868,901
4,870,889
8,874,892
7,875,882
0,875,902
2,881,887
1,887,901
2,889,890
7,890,918
2,894,900
6,894,904
8,896,903
4,900,906
9,901,902
1,902,966
9,903,906
2,905,906
8,906,913
6,906,908
9,908,934
0,910,914
2,910,927
6,910,924
3,912,924
0,915,937
8,916,920
4,916,925
7,920,944
8,922,937
4,927,929
6,927,939
3,928,940
5,929,953
2,930,932
4,932,959
9,935,939
2,935,937
8,939,966
0,939,950
9,942,960
2,943,952
6,943,950
3,948,976
0,952,954
2,954,956
5,955,965
0,956,1037
2,958,970
7,962,1012
6,963,968
9,963,968
5,967,986
4,967,974
8,969,983
2,971,997
9,972,973
6,973,992
9,976,982
4,976,991
1,976,1050
3,980,995
9,984,1003
8,987,999
6,993,1002
2,998,1050
5,998,1022
8,1000,1009
